Practical Day 4 – Assignment 1
…
# A tibble: 1 × 1
  proportion
       <dbl>
1      0.108

Question 6

dt_flights<- flights
dt_flights_route<-dt_flights %>% 
  group_by(origin,dest) %>%       #groups by routes
  filter(n_distinct(carrier)>1) %>%  #groups with more than 1 airline flies
  ungroup()
dt_flights_route

# A tibble: 276,735 × 19
    year month   day dep_time sched_dep_time dep_delay arr_time sched_arr_time
   <int> <int> <int>    <int>          <int>     <dbl>    <int>          <int>
 1  2013     1     1      542            540         2      923            850
 2  2013     1     1      554            600        -6      812            837
 3  2013     1     1      554            558        -4      740            728
 4  2013     1     1      555            600        -5      913            854
 5  2013     1     1      557            600        -3      709            723
 6  2013     1     1      557            600        -3      838            846
 7  2013     1     1      558            600        -2      753            745
 8  2013     1     1      558            600        -2      853            856
 9  2013     1     1      558            600        -2      924            917
10  2013     1     1      558            600        -2      923            937
# ℹ 276,725 more rows
# ℹ 11 more variables: arr_delay <dbl>, carrier <chr>, flight <int>,
#   tailnum <chr>, origin <chr>, dest <chr>, air_time <dbl>, distance <dbl>,
#   hour <dbl>, minute <dbl>, time_hour <dttm>

delay_flights <- dt_flights_route %>%
  group_by(origin,dest,carrier) %>% 
  summarise(average_arrival_delay= mean(arr_delay,na.rm = TRUE))%>% 
  left_join(airlines, by='carrier')

`summarise()` has grouped output by 'origin', 'dest'. You can override using
the `.groups` argument.

delay_flights

# A tibble: 343 × 5
# Groups:   origin, dest [128]
   origin dest  carrier average_arrival_delay name                    
   <chr>  <chr> <chr>                   <dbl> <chr>                   
 1 EWR    ATL   9E                      -6.25 Endeavor Air Inc.       
 2 EWR    ATL   DL                      10.00 Delta Air Lines Inc.    
 3 EWR    ATL   EV                      19.5  ExpressJet Airlines Inc.
 4 EWR    ATL   UA                      10.5  United Air Lines Inc.   
 5 EWR    AUS   UA                       4.28 United Air Lines Inc.   
 6 EWR    AUS   WN                     -11.2  Southwest Airlines Co.  
 7 EWR    BDL   EV                       6.78 ExpressJet Airlines Inc.
 8 EWR    BDL   UA                      22.6  United Air Lines Inc.   
 9 EWR    BNA   EV                      17.7  ExpressJet Airlines Inc.
10 EWR    BNA   WN                      -2.13 Southwest Airlines Co.  
# ℹ 333 more rows

#maximum avg. arrival delay for each route
worst_delay <- delay_flights %>%
  group_by(origin,dest) %>% 
  slice_max(average_arrival_delay,n=1,with_ties = FALSE )
worst_delay

# A tibble: 128 × 5
# Groups:   origin, dest [128]
   origin dest  carrier average_arrival_delay name                    
   <chr>  <chr> <chr>                   <dbl> <chr>                   
 1 EWR    ATL   EV                      19.5  ExpressJet Airlines Inc.
 2 EWR    AUS   UA                       4.28 United Air Lines Inc.   
 3 EWR    BDL   UA                      22.6  United Air Lines Inc.   
 4 EWR    BNA   EV                      17.7  ExpressJet Airlines Inc.
 5 EWR    BOS   B6                       6.87 JetBlue Airways         
 6 EWR    BWI   EV                      20.1  ExpressJet Airlines Inc.
 7 EWR    CHS   EV                      16.2  ExpressJet Airlines Inc.
 8 EWR    CLE   UA                       5.97 United Air Lines Inc.   
 9 EWR    CLT   EV                      20.5  ExpressJet Airlines Inc.
10 EWR    CVG   EV                      21.2  ExpressJet Airlines Inc.
# ℹ 118 more rows

# minimum avg. delay time for each route
best_delay <- delay_flights %>%
  group_by(origin, dest) %>%
  slice_min(average_arrival_delay, n = 1, with_ties = FALSE)
best_delay

# A tibble: 128 × 5
# Groups:   origin, dest [128]
   origin dest  carrier average_arrival_delay name                    
   <chr>  <chr> <chr>                   <dbl> <chr>                   
 1 EWR    ATL   9E                     -6.25  Endeavor Air Inc.       
 2 EWR    AUS   WN                    -11.2   Southwest Airlines Co.  
 3 EWR    BDL   EV                      6.78  ExpressJet Airlines Inc.
 4 EWR    BNA   WN                     -2.13  Southwest Airlines Co.  
 5 EWR    BOS   EV                     -4.01  ExpressJet Airlines Inc.
 6 EWR    BWI   WN                      5.95  Southwest Airlines Co.  
 7 EWR    CHS   UA                    -14     United Air Lines Inc.   
 8 EWR    CLE   EV                     -3.71  ExpressJet Airlines Inc.
 9 EWR    CLT   US                      0.920 US Airways Inc.         
10 EWR    CVG   9E                      1.40  Endeavor Air Inc.       
# ℹ 118 more rows
…
# A tibble: 1 × 7
  origin dest  max_delay min_delay   gap worst_airline best_airline
  <chr>  <chr>     <dbl>     <dbl> <dbl> <chr>         <chr>       
1 JFK    ATL         128      1.40  127. EV            9E          

flights %>% filter(origin=='JFK', dest=='ATL')

# A tibble: 1,930 × 19
    year month   day dep_time sched_dep_time dep_delay arr_time sched_arr_time
   <int> <int> <int>    <int>          <int>     <dbl>    <int>          <int>
 1  2013     1     1      606            610        -4      837            845
 2  2013     1     1      807            810        -3     1043           1043
 3  2013     1     1     1325           1330        -5     1606           1605
 4  2013     1     1     1621           1548        33     1904           1830
 5  2013     1     1     1856           1855         1     2142           2142
 6  2013     1     2      606            610        -4      846            845
 7  2013     1     2      808            810        -2     1049           1045
 8  2013     1     2     1324           1330        -6     1552           1605
 9  2013     1     2     1551           1548         3     1838           1830
10  2013     1     2     1854           1855        -1     2126           2142
# ℹ 1,920 more rows
# ℹ 11 more variables: arr_delay <dbl>, carrier <chr>, flight <int>,
#   tailnum <chr>, origin <chr>, dest <chr>, air_time <dbl>, distance <dbl>,
#   hour <dbl>, minute <dbl>, time_hour <dttm>
…
